{
  "ns.web": {
    "App": {
      "ChooseUserLocation": "Escolha a sua localização e salve:",
      "ChooseUserLocationHeader": "Check de localização",
      "CurrentLocationOption": "Local atual",
      "Days": "d",
      "Description": "Horários de transporte público. Lista de estações, partidas e chegadas. Planejador de viagens e mapa de transporte público.",
      "GeoFailed": "Não foi possível detectar o seu local - escolha manualmente da lista",
      "Hours": "h",
      "Loading": "carregando...",
      "Message404": "Ops... esta página não está mais disponível",
      "MessageError": "Ops... tivemos um erro (__status__). Tente novamente.",
      "Minutes": "min",
      "Now": "Agora",
      "Save": "Salvar",
      "Schedules": "Horários",
      "Title": "Planejador de viagens, horários de transporte público",
      "TitleDepartures": "Partidas da parada __stopName__",
      "TitleDirections": "Busca de paradas, __stopName__",
      "TitleSchedules": "$t(Scope.__scope__), horários de transporte público",
      "TitleSearchResult": "Rota mais rápida __start__ - __end__",
      "TitleTimes": "$t(Scope.__scope__), __scheduleName__ $t(Transport.__transport__), __stopName__ horários de paradas",
      "TitleTrackStops": "$t(Scope.__scope__), __scheduleName__ $t(Transport.__transport__), __trackName__"
    },
    "Autocomplete": {
      "address": "Endereço",
      "Addresses": "Endereços",
      "AddToFavorites": "Adicionar aos favoritos",
      "AutoUserLocation": "Detectar minha localização",
      "ChangeUserLocation": "Mudar?",
      "ChooseUserLocation": "Escolha",
      "Favorites": "Favoritos",
      "object": "Ponto de interesse",
      "PoweredBy": "Oferecido por TRAFI & Foursquare",
      "RemoveFromFavorites": "Remover dos favoritos",
      "stop": "Parada",
      "YourLocation": "Sua localização"
    },
    "Brazil": {
      "App": {
        "Description": "Horários de transporte público para São Paulo e Rio de Janeiro. Horários dos ônibus, metrô, trens, barcas, bondes e outros transportes locais. Lista de estações, partidas e chegadas. Planejador de viagens e mapa de transporte público."
      }
    },
    "DayNames": {
      "Friday": "Sexta",
      "Friday_short": "S",
      "Monday": "Segunda",
      "Monday_short": "S",
      "Saturday": "Sábado",
      "Saturday_short": "S",
      "Sunday": "Domingo",
      "Sunday_short": "D",
      "Thursday": "Quinta",
      "Thursday_short": "Q",
      "Tuesday": "Terça",
      "Tuesday_short": "T",
      "Wednesday": "Quarta",
      "Wednesday_short": "Q",
      "Weekend": "Finais de semana",
      "Workday": "Dias úteis"
    },
    "Departures": {
      "After": "depois",
      "Also": "também",
      "DeparturesTitle": "Partidas para esta parada:",
      "IndicatesRealTime": "Este ícone indica informações de tempo real",
      "InRealTime": "Em tempo real",
      "MoreNameLetters": "Entre mais letras",
      "TextPlaceholder": "Busca por paradas",
      "Towards": "Indo para __direction__"
    },
    "Estonia": {
      "App": {
        "Description": "Horários de transporte público para Tallinn. Horários dos ônibus, trólebus, bonde, trem e barcas. Lista de estações, partidas e chegadas. Planejador de viagens e mapa de transporte público."
      }
    },
    "Info": {
      "About": {
        "Content": "TRAFI é um planejador de viagens combinando todos os tipos de transporte público, táxis, bicicletas e caminhada. TRAFI analisa a situação da cidade em tempo real e provê a forma mais conveniente de se deslocar de porta a porta. TRAFI é um dos maiores projetos da sua categoria em mercados emergentes e num futuro próximo planeja uma expansão agressiva nas maiores cidades do mundo.<br/><br/>Você encontrará mais informações sobre o TRAFI em <a href=\"http://www.trafi.com\">www.trafi.com</a>",
        "Title": "O que é o TRAFI?"
      },
      "Contact": {
        "Content": "Adoraríamos ouvir seu feedback, por favor mande mensagem para <a href=\"mailto:info@trafi.com\">info@trafi.com</a>",
        "Title": "Conte-nos o que está achando!"
      },
      "Terms": {
        "Content": "O TRAFI sempre tenta prover as informações de trânsito o mais precisas possível, mas não somos responsáveis pelos horários de transporte público e não podemos garantir que estaremos sempre corretos. Não somos responsáveis pela inconveniência causada por eventuais imprecisões nos dados exibidos no site do TRAFI. Também não somos responsáveis por transportes atrasados, desordem nos horários e todo o dano sofrido causado por este fato.",
        "Title": "TERMOS & CONDIÇÕES"
      }
    },
    "Latvia": {
      "App": {
        "Description": "Horários de transporte público para Riga, Liepaja e Jelgava. Horários dos ônibus, trólebus, bonde, vans e ônibus noturnos. Lista de estações, partidas e chegadas. Planejador de viagens e mapa de transporte público."
      }
    },
    "Lithuania": {
      "App": {
        "Description": "Horários de transporte público para Vilnius, Kaunas, Klaipeda, Siauliai e Panevezys. Horários dos ônibus, trólebus e vans. Lista de estações, partidas e chegadas. Planejador de viagens e mapa de transporte público."
      }
    },
    "Map": {
      "BikesAvailable": "Bicicletas disponíveis:",
      "BikeSpotsFree": "Posições disponíveis:",
      "GoFrom": "Ir de",
      "GoTo": "Ir para",
      "PointOnMap": "Ponto no mapa",
      "ShowAllStops": "Paradas no mapa",
      "ShowBikeStations": "Estações de bicicleta pública",
      "ShowDepartures": "Mostrar partidas"
    },
    "Menu": {
      "About": "Sobre",
      "Contact": "Contato",
      "Terms": "Termos & Condições"
    },
    "Mobile": {
      "AndroidDownload": "Baixe o app para Android",
      "IosDownload": "Baixe o app para iOS"
    },
    "RouteSearch": {
      "ChangeTime": "Mudar o horário",
      "EarlierTime": "Mais cedo",
      "LaterTime": "Mais tarde",
      "MoreResults": "Mais resultados",
      "Route": "Rota",
      "RouteNotFound": "Rota não encontrada. Tente outras configurações.",
      "TimeArrival": "Chegada",
      "TimeDeparture": "Partida",
      "Walk": "Caminhe",
      "YourGuide": "Guia de jornada"
    },
    "RouteSearchBox": {
      "Arrive": "Chegada",
      "ClarifyName": "Reveja o nome",
      "Depart": "Partida",
      "MoreNameLetters": "Entre mais letras",
      "MyLocation": "Encontre minha localização atual",
      "NameNotFound": "Nome não encontrado",
      "Search": "Buscar",
      "Settings": "Configurações",
      "TextPlaceholderEnd": "Para onde?",
      "TextPlaceholderStart": "De onde?"
    },
    "RouteSearchMiniSettings": {
      "OK": "OK"
    },
    "Runs": {
      "Title": "Vezes em cada parada"
    },
    "Schedules": {
      "Accessible": "Acessível",
      "AllTransportTypes": "Todos os tipos de transporte",
      "From": "de",
      "SearchPlaceholder": "Busca de horários",
      "Title": "Horários",
      "To": "para"
    },
    "Times": {
      "Accessible": "Este transporte tem acessibilidade",
      "Direction": "Sentido",
      "Notes": "Notas",
      "NoTimes": "Não há horários de partidas para esta parada"
    },
    "Turkey": {
      "App": {
        "Description": "Horários de transporte público para Istanbul, Ankara, Konya, Adana, Bursa, Kayseri e Izmir. Horários dos ônibus, metrô, trens e barcas. Lista de estações, partidas e chegadas. Planejador de viagens e mapa de transporte público."
      }
    },
    "Url": {
      "Schedules": "horários"
    }
  }
}